<?xml version="1.0" standalone="no"?>
<!DOCTYPE svg PUBLIC "-//W3C//DTD SVG 1.1//EN" "http://www.w3.org/Graphics/SVG/1.1/DTD/svg11.dtd" >
<svg>
<metadata>
Created by FontForge 20120731 at Thu Dec 15 16:51:51 2016
 By www-data
</metadata>
<defs>
<font id="HarabaraBold" horiz-adv-x="345" >
  <font-face 
    font-family="Harabara"
    font-weight="700"
    font-stretch="normal"
    units-per-em="512"
    panose-1="2 11 8 3 5 3 2 2 2 4"
    ascent="409"
    descent="-103"
    x-height="266"
    cap-height="344"
    bbox="-39 -112 511 436"
    underline-thickness="0"
    underline-position="0"
    unicode-range="U+0020-00FC"
  />
<missing-glyph horiz-adv-x="512" 
d="M156 345h56l125 -345h-75l-23 71h-134l-23 -71h-75l115 322q8 23 34 23zM171 276l-47 -147h96z" />
    <glyph glyph-name=".notdef" horiz-adv-x="512" 
d="M156 345h56l125 -345h-75l-23 71h-134l-23 -71h-75l115 322q8 23 34 23zM171 276l-47 -147h96z" />
    <glyph glyph-name="glyph1" horiz-adv-x="0" 
 />
    <glyph glyph-name="glyph2" horiz-adv-x="512" 
 />
    <glyph glyph-name="space" unicode=" " horiz-adv-x="115" 
 />
    <glyph glyph-name="A" unicode="A" 
d="M148 344h56l125 -344h-75l-23 71h-134l-22 -71h-75l114 321q9 23 34 23zM164 275l-48 -146h96z" />
    <glyph glyph-name="Aacute" unicode="&#xc1;" 
d="M148 344h56l125 -344h-75l-23 71h-134l-22 -71h-75l114 321q9 23 34 23zM243 431l-61 -63h-33l28 51q4 12 21 12h45zM164 275l-48 -146h96z" />
    <glyph glyph-name="Agrave" unicode="&#xc0;" 
d="M148 344h56l125 -344h-75l-23 71h-134l-22 -71h-75l114 321q9 23 34 23zM100 431h44q16 0 21 -12l28 -51h-33zM164 275l-48 -146h96z" />
    <glyph glyph-name="Acircumflex" unicode="&#xc2;" 
d="M148 344h56l125 -344h-75l-23 71h-134l-22 -71h-75l114 321q9 23 34 23zM164 275l-48 -146h96zM203 406l32 -38h-41l-30 34l-21 -23q-6 -6 -10.5 -8.5t-13.5 -2.5h-24l32 38q16 21 38 21q21 0 38 -21z" />
    <glyph glyph-name="Atilde" unicode="&#xc3;" 
d="M164 275l-48 -146h96zM148 344h56l125 -344h-75l-23 71h-134l-22 -71h-75l114 321q9 23 34 23zM102 368v27q0 15 16 23q12 4 27 -1t29.5 -10.5t28 -6.5t24.5 12q0 -18 -1.5 -30t-17.5 -15q-14 -3 -29 3t-29 10.5t-27 4t-21 -16.5z" />
    <glyph glyph-name="Adieresis" unicode="&#xc4;" 
d="M164 275l-48 -146h96zM148 344h56l125 -344h-75l-23 71h-134l-22 -71h-75l114 321q9 23 34 23zM232 397v-29h-45v46h29q16 0 16 -17zM142 397v-29h-46v46h29q17 0 17 -17z" />
    <glyph glyph-name="B" unicode="B" horiz-adv-x="296" 
d="M0 0v308q0 15 10.5 25.5t25.5 10.5h126q53 0 81 -22q28 -24 28 -65q0 -26 -11 -44q-11 -17 -31 -27q26 -11 40 -31q13 -19 13 -50q0 -50 -32 -78q-33 -27 -93 -27h-157zM68 211h81q26 0 38 9t12 28t-12 28q-10 8 -39 8h-80v-73zM68 62h84q28 0 43 11q14 10 14 34t-14 35
q-13 10 -44 10h-83v-90z" />
    <glyph glyph-name="C" unicode="C" horiz-adv-x="322" 
d="M307 119q-5 -60 -45 -94q-41 -33 -108 -33q-78 0 -119 47q-41 45 -41 133q0 90 42 135q43 47 124 47q66 0 105 -33q37 -32 42 -90h-43q-24 0 -34 21v0q-7 13 -17 23q-20 15 -53 15q-46 0 -71 -30q-24 -30 -24 -88q0 -56 24 -86q23 -31 69 -31q32 0 53 16q19 15 27 48h69z
" />
    <glyph glyph-name="Ccedilla" unicode="&#xc7;" horiz-adv-x="322" 
d="M307 119q-5 -60 -45 -94q-41 -33 -108 -33q-78 0 -119 47q-41 45 -41 133q0 90 42 135q43 47 124 47q66 0 105 -33q37 -32 42 -90h-43q-24 0 -34 21v0q-7 13 -17 23q-20 15 -53 15q-46 0 -71 -30q-24 -30 -24 -88q0 -56 24 -86q23 -31 69 -31q32 0 53 16q19 15 27 48h69z
M83 -72v33q0 16 18 23q13 5 28.5 0t31.5 -10.5t30.5 -6.5t25.5 11q0 -18 -1.5 -32.5t-19.5 -18.5q-14 -2 -30 4t-31.5 11t-29 4t-22.5 -18z" />
    <glyph glyph-name="D" unicode="D" horiz-adv-x="306" 
d="M0 0v308q0 15 10.5 25.5t25.5 10.5h99q79 0 118 -42q39 -44 39 -130q0 -46 -14 -83q-16 -38 -42 -58q-22 -17 -47 -24q-24 -7 -73 -7h-116zM69 62h57q49 0 72 26q22 24 22 84q0 58 -21 85q-20 27 -64 27h-66v-222z" />
    <glyph glyph-name="E" unicode="E" horiz-adv-x="262" 
d="M0 0v308q0 15 10.5 25.5t25.5 10.5h214v-59h-180v-74h134v-23q0 -15 -10.5 -25.5t-25.5 -10.5h-98v-88h180v-64h-250z" />
    <glyph glyph-name="Egrave" unicode="&#xc8;" horiz-adv-x="262" 
d="M0 0v308q0 15 10.5 25.5t25.5 10.5h214v-59h-180v-74h134v-23q0 -15 -10.5 -25.5t-25.5 -10.5h-98v-88h180v-64h-250zM64 431h45q8 0 13 -4.5t8 -7.5l28 -51h-33z" />
    <glyph glyph-name="Eacute" unicode="&#xc9;" horiz-adv-x="262" 
d="M0 0v308q0 15 10.5 25.5t25.5 10.5h214v-59h-180v-74h134v-23q0 -15 -10.5 -25.5t-25.5 -10.5h-98v-88h180v-64h-250zM207 431l-61 -63h-33l28 51q2 3 7 7.5t14 4.5h45z" />
    <glyph glyph-name="Ecircumflex" unicode="&#xca;" horiz-adv-x="262" 
d="M0 0v308q0 15 10.5 25.5t25.5 10.5h214v-59h-180v-74h134v-23q0 -15 -10.5 -25.5t-25.5 -10.5h-98v-88h180v-64h-250zM172 406l32 -38h-40l-31 34l-20 -23q-6 -6 -11 -8.5t-14 -2.5h-24l32 38q16 21 39 21q20 0 37 -21z" />
    <glyph glyph-name="Edieresis" unicode="&#xcb;" horiz-adv-x="262" 
d="M0 0v308q0 15 10.5 25.5t25.5 10.5h214v-59h-180v-74h134v-23q0 -15 -10.5 -25.5t-25.5 -10.5h-98v-88h180v-64h-250zM193 397v-29h-45v46h28q17 0 17 -17zM102 397v-29h-45v46h28q17 0 17 -17z" />
    <glyph glyph-name="F" unicode="F" horiz-adv-x="262" 
d="M0 0v308q0 15 10.5 25.5t25.5 10.5h214v-59h-180v-74h134v-23q0 -15 -10.5 -25.5t-25.5 -10.5h-98v-152h-70z" />
    <glyph glyph-name="G" unicode="G" horiz-adv-x="327" 
d="M255 41q-18 -26 -43 -38q-26 -11 -57 -11q-74 0 -117 49q-44 48 -44 132q0 83 43 131q45 50 119 50q64 0 106 -31q41 -33 49 -86h-48q-21 0 -31 19q-7 12 -20 22q-20 14 -53 14q-43 0 -68 -31q-25 -33 -25 -88q0 -56 26 -88q25 -31 71 -31q34 0 56 19q22 20 28 55h-42
q-15 0 -25.5 10.5t-10.5 25.5v23h143v-187h-19q-28 0 -35 28z" />
    <glyph glyph-name="H" unicode="H" horiz-adv-x="299" 
d="M0 0v308q0 15 10.5 25.5t25.5 10.5h35v-128h142v128h72v-344h-72v153h-142v-153h-71z" />
    <glyph glyph-name="I" unicode="I" horiz-adv-x="74" 
d="M0 0v308q0 15 10.5 25.5t25.5 10.5h35v-344h-71z" />
    <glyph glyph-name="Iacute" unicode="&#xcd;" horiz-adv-x="118" 
d="M0 0v308q0 15 10.5 25.5t25.5 10.5h35v-344h-71zM113 431l-60 -63h-33l28 51q4 12 21 12h44z" />
    <glyph glyph-name="Igrave" unicode="&#xcc;" horiz-adv-x="74" 
d="M0 0v308q0 15 10.5 25.5t25.5 10.5h35v-344h-71zM-36 431h44q9 0 13.5 -4.5l7.5 -7.5l28 -51h-33z" />
    <glyph glyph-name="Idieresis" unicode="&#xcf;" horiz-adv-x="120" 
d="M11 0v308q0 15 10.5 25.5t25.5 10.5h35v-344h-71zM115 397v-29h-46v46h29q17 0 17 -17zM24 397v-29h-45v46h28q17 0 17 -17z" />
    <glyph glyph-name="Icircumflex" unicode="&#xce;" horiz-adv-x="110" 
d="M0 0v308q0 15 10.5 25.5t25.5 10.5h35v-344h-71zM74 406l31 -38h-40l-30 34l-21 -23q-11 -11 -24 -11h-23l32 38q15 21 37 21q20 0 38 -21z" />
    <glyph glyph-name="J" unicode="J" horiz-adv-x="231" 
d="M0 129h69v-42q0 -18 10 -28q10 -9 31 -9t31 11q8 10 8 43v204q0 15 11 25.5t26 10.5h34v-243q0 -33 -3 -48q-5 -17 -13 -27q-14 -17 -37 -26q-26 -8 -56 -8q-32 0 -52 8q-21 5 -37 22q-13 14 -17 28q-5 18 -5 52v27z" />
    <glyph glyph-name="K" unicode="K" horiz-adv-x="321" 
d="M0 0v308q0 15 10.5 25.5t25.5 10.5h35v-141l134 141h89l-138 -139l150 -205h-86l-87 122q-23 30 -42.5 23.5t-19.5 -24.5v-121h-71z" />
    <glyph glyph-name="L" unicode="L" horiz-adv-x="250" 
d="M0 0v308q0 15 10.5 25.5t25.5 10.5h35v-280h168v-64h-239z" />
    <glyph glyph-name="M" unicode="M" horiz-adv-x="363" 
d="M0 0v308q0 15 10.5 25.5t25.5 11.5h69l68 -263l68 263h105v-345h-66v278l-70 -278h-73l-71 278v-278h-66z" />
    <glyph glyph-name="N" unicode="N" horiz-adv-x="298" 
d="M0 0v308q0 15 10.5 25.5t25.5 11.5h38l140 -237v237h70v-345h-73l-141 237v-237h-70z" />
    <glyph glyph-name="Ntilde" unicode="&#xd1;" horiz-adv-x="298" 
d="M0 0v308q0 15 10.5 25.5t25.5 10.5h38l140 -236v236h70v-344h-73l-141 237v-237h-70zM87 370v27q0 16 16 22q12 4 27 -0.5t29.5 -10t28 -6.5t24.5 12q0 -18 -1.5 -30t-17.5 -15q-14 -3 -29 3t-29 10.5t-27 4t-21 -16.5z" />
    <glyph glyph-name="O" unicode="O" 
d="M65 172q0 -58 25 -88q25 -31 71 -31q45 0 71 31q26 32 26 88t-26 89q-26 31 -71 31q-46 0 -71 -31t-25 -89zM-6 172q0 84 44 133q47 49 123 49q75 0 123 -49q45 -50 45 -133t-45 -132q-46 -48 -123 -48q-78 0 -123 48q-44 48 -44 132z" />
    <glyph glyph-name="Oacute" unicode="&#xd3;" 
d="M65 172q0 -58 25 -88q25 -31 71 -31q45 0 71 31q26 32 26 88t-26 89q-26 31 -71 31q-46 0 -71 -31t-25 -89zM228 431l-61 -63h-32l28 51q4 12 21 12h44zM-6 172q0 84 44 133q47 49 123 49q75 0 123 -49q45 -50 45 -133t-45 -132q-46 -48 -123 -48q-78 0 -123 48
q-44 48 -44 132z" />
    <glyph glyph-name="Ograve" unicode="&#xd2;" 
d="M65 172q0 -58 25 -88q25 -31 71 -31q45 0 71 31q26 32 26 88t-26 89q-26 31 -71 31q-46 0 -71 -31t-25 -89zM79 431h45q8 0 13 -4.5t8 -7.5l27 -51h-32zM-6 172q0 84 44 133q47 49 123 49q75 0 123 -49q45 -50 45 -133t-45 -132q-46 -48 -123 -48q-78 0 -123 48
q-44 48 -44 132z" />
    <glyph glyph-name="Ocircumflex" unicode="&#xd4;" 
d="M-6 172q0 84 44 133q47 49 123 49q75 0 123 -49q45 -50 45 -133t-45 -132q-46 -48 -123 -48q-78 0 -123 48q-44 48 -44 132zM199 406l32 -38h-40l-31 34l-20 -23q-6 -6 -11 -8.5t-14 -2.5h-24l32 38q16 21 39 21q20 0 37 -21zM65 172q0 -58 25 -88q25 -31 71 -31
q45 0 71 31q26 32 26 88t-26 89q-26 31 -71 31q-46 0 -71 -31t-25 -89z" />
    <glyph glyph-name="Otilde" unicode="&#xd5;" 
d="M-6 172q0 84 44 133q47 49 123 49q75 0 123 -49q45 -50 45 -133t-45 -132q-46 -48 -123 -48q-78 0 -123 48q-44 48 -44 132zM98 368v27q0 15 17 23q12 4 27 -1t29.5 -10.5t28 -6.5t24.5 12q0 -18 -2 -30t-17 -15q-14 -3 -29 3t-29.5 11t-27 4t-21.5 -17zM65 172
q0 -58 25 -88q25 -31 71 -31q45 0 71 31q26 32 26 88t-26 89q-26 31 -71 31q-46 0 -71 -31t-25 -89z" />
    <glyph glyph-name="Odieresis" unicode="&#xd6;" 
d="M-6 172q0 84 44 133q47 49 123 49q75 0 123 -49q45 -50 45 -133t-45 -132q-46 -48 -123 -48q-78 0 -123 48q-44 48 -44 132zM229 397v-29h-45v46h28q17 0 17 -17zM138 397v-29h-45v46h28q17 0 17 -17zM65 172q0 -58 25 -88q25 -31 71 -31q45 0 71 31q26 32 26 88t-26 89
q-26 31 -71 31q-46 0 -71 -31t-25 -89z" />
    <glyph glyph-name="Oslash" unicode="&#xd8;" horiz-adv-x="347" 
d="M-6 172q0 84 44 133q47 49 123 49q66 0 108 -36l23 27h39l-41 -48q39 -47 39 -125q0 -83 -45 -132q-46 -48 -123 -48q-67 0 -108 34l-23 -26h-38l40 47q-38 46 -38 125zM243 244l-146 -167q24 -24 64 -24q45 0 71 31q26 32 26 88q0 43 -15 72zM79 101l146 167
q-24 24 -64 24q-46 0 -71 -31t-25 -89q0 -42 14 -71z" />
    <glyph glyph-name="P" unicode="P" horiz-adv-x="276" 
d="M71 123v-123h-71v308q0 15 10.5 25.5t25.5 10.5h117q55 0 82 -28q28 -28 28 -83q0 -52 -27 -82q-27 -28 -78 -28h-87zM71 185h69q28 0 40 12q13 11 13 38q0 23 -12 37q-14 12 -37 12h-73v-99z" />
    <glyph glyph-name="Q" unicode="Q" horiz-adv-x="346" 
d="M252 15q-18 -13 -40 -17q-24 -6 -51 -6q-78 0 -123 48q-44 48 -44 132t44 133q47 49 123 49q75 0 123 -49q45 -50 45 -133q0 -36 -9 -66q-9 -31 -28 -53l38 -36l-19 -19q-10 -10 -21 -8.5t-18 7.5zM202 62l-36 35l12 13q8 9 21.5 11t22.5 -4l20 -16q7 13 12 32
q1 9 2.5 18.5t1.5 20.5q0 56 -26 89q-26 31 -71 31q-46 0 -71 -31t-25 -89t25 -88q25 -31 71 -31q15 0 22 2q11 3 19 7z" />
    <glyph glyph-name="R" unicode="R" horiz-adv-x="298" 
d="M0 0v308q0 15 10.5 25.5t25.5 10.5h131q56 0 83 -24q28 -25 28 -73q0 -32 -14 -53q-12 -20 -38 -29q23 -8 32 -24q9 -15 11 -51l2 -41v-13t1 -13q3 -18 12 -23h-78q-5 10 -6 21q-2 16 -2 22l-1 37q-2 30 -12 43q-11 11 -39 11h-75v-134h-71zM71 194h83q27 0 40 11t13 34
t-13 34q-12 12 -36 12h-87v-91z" />
    <glyph glyph-name="S" unicode="S" horiz-adv-x="294" 
d="M0 107h70q4 -30 23 -42q20 -14 55 -14q31 0 47 11t16 32q0 32 -90 52l-2 1l-8 2q-51 11 -68 23q-20 11 -28 32q-10 18 -10 46q0 49 34 77q34 27 99 27q61 0 94 -28q34 -31 36 -81h-40q-23 0 -33 21v0q-5 10 -14 17q-18 13 -49 13q-30 0 -43 -11q-15 -11 -15 -31
q0 -27 58 -40q17 -5 25 -6q18 -6 31.5 -9.5t21.5 -5.5l28 -12q20 -12 31 -31q11 -21 11 -46q0 -54 -36 -84q-36 -28 -102 -28q-68 0 -102 29q-37 29 -40 86z" />
    <glyph glyph-name="T" unicode="T" horiz-adv-x="287" 
d="M102 0v283h-102v25q0 15 10.5 25.5t25.5 10.5h238v-61h-101v-283h-71z" />
    <glyph glyph-name="U" unicode="U" horiz-adv-x="289" 
d="M72 345v-215q0 -40 15 -59q16 -18 51 -18q34 0 51 18q16 18 16 59v215h71v-223q0 -64 -36 -97q-33 -33 -102 -33t-102 33q-36 33 -36 97v185q0 15 10.5 26.5t25.5 11.5h36z" />
    <glyph glyph-name="Uacute" unicode="&#xda;" horiz-adv-x="289" 
d="M72 345v-215q0 -40 15 -59q16 -18 51 -18q34 0 51 18q16 18 16 59v215h71v-223q0 -64 -36 -97q-33 -33 -102 -33t-102 33q-36 33 -36 97v185q0 15 10.5 26.5t25.5 11.5h36zM205 431l-61 -63h-32l27 51q2 3 7 7.5t14 4.5h45z" />
    <glyph glyph-name="Ugrave" unicode="&#xd9;" horiz-adv-x="289" 
d="M72 345v-215q0 -40 15 -59q16 -18 51 -18q34 0 51 18q16 18 16 59v215h71v-223q0 -64 -36 -97q-33 -33 -102 -33t-102 33q-36 33 -36 97v187q0 14 10.5 25t25.5 11h36zM72 431h45q8 0 13 -4.5t8 -7.5l28 -51h-33z" />
    <glyph glyph-name="Ucircumflex" unicode="&#xdb;" horiz-adv-x="289" 
d="M72 345v-215q0 -40 15 -59q16 -18 51 -18q34 0 51 18q16 18 16 59v215h71v-223q0 -64 -36 -97q-33 -33 -102 -33t-102 33q-36 33 -36 97v187q0 14 10.5 25t25.5 11h36zM176 406l32 -38h-40l-31 34l-21 -23q-6 -6 -10.5 -8.5t-13.5 -2.5h-24l32 38q16 21 38 21
q21 0 38 -21z" />
    <glyph glyph-name="Udieresis" unicode="&#xdc;" horiz-adv-x="289" 
d="M72 345v-215q0 -40 15 -59q16 -18 51 -18q34 0 51 18q16 18 16 59v215h71v-223q0 -64 -36 -97q-33 -33 -102 -33t-102 33q-36 33 -36 97v187q0 14 10.5 25t25.5 11h36zM115 397v-29h-45v46h28q17 0 17 -17zM206 397v-29h-45v46h28q17 0 17 -17z" />
    <glyph glyph-name="V" unicode="V" horiz-adv-x="319" 
d="M119 0l-119 344h79l73 -257l67 231v0q6 26 34 26h51l-117 -344h-68z" />
    <glyph glyph-name="W" unicode="W" horiz-adv-x="460" 
d="M99 0l-99 344h73l59 -243l50 243h76l49 -243l53 217q6 26 35 26h44l-98 -344h-68l-53 264l-54 -264h-67z" />
    <glyph glyph-name="X" unicode="X" horiz-adv-x="319" 
d="M0 0l108 176l-108 168h82l70 -120l60 103v0v0q10 17 31 17h61l-108 -168l108 -176h-81l-71 119l-70 -119h-82z" />
    <glyph glyph-name="Y" unicode="Y" horiz-adv-x="324" 
d="M196 0h-71v128l-125 216h87l73 -148l59 128q10 20 33 20h57l-113 -216v-128z" />
    <glyph glyph-name="Z" unicode="Z" horiz-adv-x="286" 
d="M0 0v60l187 222h-147v0q-15 0 -25.5 10.5t-10.5 25.5v0v26h269v-60l-187 -222h183v-62h-269z" />
    <glyph glyph-name="a" unicode="a" horiz-adv-x="229" 
d="M154 134q-14 -7 -39 -13l-23 -5q-18 -5 -26 -13q-7 -11 -7 -22q0 -15 9 -24q9 -8 26 -8q28 0 44 16t16 44v25zM170 11q-21 -11 -44.5 -13.5t-41.5 -2.5q-36 0 -63 19.5t-27 64.5q0 42 24.5 60t62.5 24q5 0 12 1.5t16 2.5q44 6 44 26q0 15 -15.5 19.5t-28.5 4.5
q-14 0 -25 -4t-16 -15h-67q4 31 28 51q27 23 77 23q56 0 84 -19q29 -20 29 -56v-91q0 -40 -14.5 -62.5t-34.5 -32.5z" />
    <glyph glyph-name="aacute" unicode="&#xe1;" horiz-adv-x="229" 
d="M177 353l-61 -63h-33l28 51q2 3 7 7.5t14 4.5h45zM154 134q-14 -7 -39 -13l-23 -5q-18 -5 -26 -13q-7 -11 -7 -22q0 -15 9 -24q9 -8 26 -8q28 0 44 16t16 44v25zM170 11q-21 -11 -44.5 -13.5t-41.5 -2.5q-36 0 -63 19.5t-27 64.5q0 42 24.5 60t62.5 24q5 0 12 1.5t16 2.5
q44 6 44 26q0 15 -15.5 19.5t-28.5 4.5q-14 0 -25 -4t-16 -15h-67q4 31 28 51q27 23 77 23q56 0 84 -19q29 -20 29 -56v-91q0 -40 -14.5 -62.5t-34.5 -32.5z" />
    <glyph glyph-name="agrave" unicode="&#xe0;" horiz-adv-x="229" 
d="M154 134q-14 -7 -39 -13l-23 -5q-18 -5 -26 -13q-7 -11 -7 -22q0 -15 9 -24q9 -8 26 -8q28 0 44 16t16 44v25zM170 11q-21 -11 -44.5 -13.5t-41.5 -2.5q-36 0 -63 19.5t-27 64.5q0 42 24.5 60t62.5 24q5 0 12 1.5t16 2.5q44 6 44 26q0 15 -15.5 19.5t-28.5 4.5
q-14 0 -25 -4t-16 -15h-67q4 31 28 51q27 23 77 23q56 0 84 -19q29 -20 29 -56v-91q0 -40 -14.5 -62.5t-34.5 -32.5zM41 353h44q9 0 14 -4.5t7 -7.5l28 -51h-32z" />
    <glyph glyph-name="acircumflex" unicode="&#xe2;" horiz-adv-x="229" 
d="M154 134q-14 -7 -39 -13l-23 -5q-18 -5 -26 -13q-7 -11 -7 -22q0 -15 9 -24q9 -8 26 -8q28 0 44 16t16 44v25zM170 11q-21 -11 -44.5 -13.5t-41.5 -2.5q-36 0 -63 19.5t-27 64.5q0 42 24.5 60t62.5 24q5 0 12 1.5t16 2.5q44 6 44 26q0 15 -15.5 19.5t-28.5 4.5
q-14 0 -25 -4t-16 -15h-67q4 31 28 51q27 23 77 23q56 0 84 -19q29 -20 29 -56v-91q0 -40 -14.5 -62.5t-34.5 -32.5zM144 328l32 -38h-41l-30 33l-21 -22q-6 -6 -10.5 -8.5t-13.5 -2.5h-24l32 38q15 20 38 20q22 0 38 -20z" />
    <glyph glyph-name="atilde" unicode="&#xe3;" horiz-adv-x="229" 
d="M154 134q-14 -7 -39 -13l-23 -5q-18 -5 -26 -13q-7 -11 -7 -22q0 -15 9 -24q9 -8 26 -8q28 0 44 16t16 44v25zM170 11q-21 -11 -44.5 -13.5t-41.5 -2.5q-36 0 -63 19.5t-27 64.5q0 42 24.5 60t62.5 24q5 0 12 1.5t16 2.5q44 6 44 26q0 15 -15.5 19.5t-28.5 4.5
q-14 0 -25 -4t-16 -15h-67q4 31 28 51q27 23 77 23q56 0 84 -19q29 -20 29 -56v-91q0 -40 -14.5 -62.5t-34.5 -32.5zM43 290v26q0 17 17 23q12 4 27 -1t29.5 -10t28 -6t23.5 12q0 -19 -1.5 -30.5t-16.5 -14.5q-14 -3 -29 3t-29.5 10.5t-27.5 4t-21 -16.5z" />
    <glyph glyph-name="adieresis" unicode="&#xe4;" horiz-adv-x="229" 
d="M83 318v-28h-45v45h28q17 0 17 -17zM174 318v-28h-45v45h28q17 0 17 -17zM154 134q-14 -7 -39 -13l-23 -5q-18 -5 -26 -13q-7 -11 -7 -22q0 -15 9 -24q9 -8 26 -8q28 0 44 16t16 44v25zM170 11q-21 -11 -44.5 -13.5t-41.5 -2.5q-36 0 -63 19.5t-27 64.5q0 42 24.5 60
t62.5 24q5 0 12 1.5t16 2.5q44 6 44 26q0 15 -15.5 19.5t-28.5 4.5q-14 0 -25 -4t-16 -15h-67q4 31 28 51q27 23 77 23q56 0 84 -19q29 -20 29 -56v-91q0 -40 -14.5 -62.5t-34.5 -32.5z" />
    <glyph glyph-name="b" unicode="b" horiz-adv-x="263" 
d="M68 311v-80q11 19 32 31q18 10 44 10q47 0 77 -39t30 -101t-30 -101q-15 -19 -40.5 -27.5t-50.5 -8.5q-48 0 -89 25t-41 96v229h34q14 0 24 -10t10 -24zM182 135q0 36 -15 56q-15 21 -41 21q-28 0 -43 -20q-15 -21 -15 -57q0 -42 14 -61q15 -21 42 -21q28 0 43 21t15 61z
" />
    <glyph glyph-name="c" unicode="c" horiz-adv-x="246" 
d="M185 82h50q-11 -42 -42 -64q-31 -23 -78 -23q-57 0 -89 37q-32 36 -32 103q0 64 31 100q32 37 89 37q60 0 93 -36q18 -22 26 -51h-70q-5 10 -10 15q-13 14 -37 14q-22 0 -36 -14q-18 -20 -18 -66t18 -65q13 -16 39 -16q17 0 29 7q3 1 5.5 3.5l5.5 5.5q2 3 8 8t18 5z" />
    <glyph glyph-name="ccedilla" unicode="&#xe7;" horiz-adv-x="246" 
d="M185 82h50q-11 -42 -42 -64q-31 -23 -78 -23q-57 0 -89 37q-32 36 -32 103q0 64 31 100q32 37 89 37q60 0 93 -36q18 -22 26 -51h-70q-5 10 -10 15q-13 14 -37 14q-22 0 -36 -14q-18 -20 -18 -66t18 -65q13 -16 39 -16q17 0 29 7q3 1 5.5 3.5l5.5 5.5q2 3 8 8t18 5z
M58 -56v26q0 18 17 23q12 5 27 0t29.5 -10.5t28 -6t24.5 11.5q0 -18 -1.5 -30t-17.5 -15q-14 -3 -29 3t-29.5 11t-27 4.5t-21.5 -17.5z" />
    <glyph glyph-name="d" unicode="d" horiz-adv-x="256" 
d="M176 345h34q14 0 24 -10.5t10 -23.5v-195q0 -71 -41 -96t-89 -25q-26 0 -51 8.5t-40 27.5q-29 37 -29 101q0 63 29 101q30 39 77 39q25 0 44 -10q20 -12 32 -31v114zM62 135q0 -40 15 -61t43 -21q27 0 42 21q14 21 14 61q0 36 -15 57q-16 20 -43 20q-26 0 -41 -21
q-15 -20 -15 -56z" />
    <glyph glyph-name="e" unicode="e" horiz-adv-x="250" 
d="M185 82h50q-11 -42 -42 -64q-31 -23 -78 -23q-57 0 -89 37q-32 36 -32 103q0 64 31 100q32 37 89 37q60 0 93 -36q32 -37 32 -103v-7v-4q0 -5 -1 -7h-173q1 -31 15 -46q13 -16 39 -16q17 0 29 7q3 1 5.5 3.5l5.5 5.5q1 3 7.5 8t18.5 5zM65 160h102q-2 27 -14 40
q-13 14 -37 14q-22 0 -36 -14t-15 -40z" />
    <glyph glyph-name="eacute" unicode="&#xe9;" horiz-adv-x="250" 
d="M185 82h50q-11 -42 -42 -64q-31 -23 -78 -23q-57 0 -89 37q-32 36 -32 103q0 64 31 100q32 37 89 37q60 0 93 -36q32 -37 32 -103v-7v-4q0 -5 -1 -7h-173q1 -31 15 -46q13 -16 39 -16q17 0 29 7q3 1 5.5 3.5l5.5 5.5q1 3 7.5 8t18.5 5zM187 353l-61 -63h-33l28 51
q2 3 7 7.5t14 4.5h45zM65 160h102q-2 27 -14 40q-13 14 -37 14q-22 0 -36 -14t-15 -40z" />
    <glyph glyph-name="egrave" unicode="&#xe8;" horiz-adv-x="250" 
d="M185 82h50q-11 -42 -42 -64q-31 -23 -78 -23q-57 0 -89 37q-32 36 -32 103q0 64 31 100q32 37 89 37q60 0 93 -36q32 -37 32 -103v-7v-4q0 -5 -1 -7h-173q1 -31 15 -46q13 -16 39 -16q17 0 29 7q3 1 5.5 3.5l5.5 5.5q1 3 7.5 8t18.5 5zM51 353h44q9 0 14 -4.5t8 -7.5
l27 -51h-32zM65 160h102q-2 27 -14 40q-13 14 -37 14q-22 0 -36 -14t-15 -40z" />
    <glyph glyph-name="ecircumflex" unicode="&#xea;" horiz-adv-x="250" 
d="M185 82h50q-11 -42 -42 -64q-31 -23 -78 -23q-57 0 -89 37q-32 36 -32 103q0 64 31 100q32 37 89 37q60 0 93 -36q32 -37 32 -103v-7v-4q0 -5 -1 -7h-173q1 -31 15 -46q13 -16 39 -16q17 0 29 7q3 1 5.5 3.5l5.5 5.5q1 3 7.5 8t18.5 5zM154 328l32 -38h-40l-31 33
l-21 -22q-6 -6 -10.5 -8.5t-13.5 -2.5h-24l32 38q15 20 38 20q22 0 38 -20zM65 160h102q-2 27 -14 40q-13 14 -37 14q-22 0 -36 -14t-15 -40z" />
    <glyph glyph-name="edieresis" unicode="&#xeb;" horiz-adv-x="250" 
d="M185 82h50q-11 -42 -42 -64q-31 -23 -78 -23q-57 0 -89 37q-32 36 -32 103q0 64 31 100q32 37 89 37q60 0 93 -36q32 -37 32 -103v-7v-4q0 -5 -1 -7h-173q1 -31 15 -46q13 -16 39 -16q17 0 29 7q3 1 5.5 3.5l5.5 5.5q1 3 7.5 8t18.5 5zM184 318v-28h-45v45h28
q17 0 17 -17zM93 318v-28h-45v45h28q17 0 17 -17zM65 160h102q-2 27 -14 40q-13 14 -37 14q-22 0 -36 -14t-15 -40z" />
    <glyph glyph-name="f" unicode="f" horiz-adv-x="116" 
d="M0 0v274q0 36 19 54q18 17 59 17q10 0 16 -1q11 0 17 -1v-55h-18q-14 0 -20 -4q-5 -4 -5 -16v-18h43v-15q0 -15 -10 -24.5t-23 -9.5h-10v-201h-68z" />
    <glyph glyph-name="g" unicode="g" horiz-adv-x="256" 
d="M176 16v17q-18 -28 -48.5 -35t-60.5 5t-51.5 44.5t-21.5 85.5q0 62 28.5 100.5t91.5 38.5q48 0 89 -26t41 -96v-141q0 -70 -41 -95.5t-89 -25.5q-92 0 -114 86h73q8 -14 24.5 -21.5t33 -4t30 19.5t15.5 48zM62 131q0 -69 40 -76.5t59 18.5q9 11 13 34.5t0.5 46.5
t-16.5 41t-38 18q-34 0 -46 -25t-12 -57z" />
    <glyph glyph-name="h" unicode="h" horiz-adv-x="260" 
d="M167 191q-15 21 -41 21q-28 0 -43 -20t-15 -55v-137h-68v344h34q14 0 24 -10t10 -24v-79q18 30 51 38t63 -4q28 -12 47 -38t19 -72v-155h-67v138q0 15 -2.5 27.5t-11.5 25.5z" />
    <glyph glyph-name="k" unicode="k" horiz-adv-x="252" 
d="M70 266v0v-98l85 98h84l-95 -102l96 -164h-84l-49 90q-15 27 -26 23t-11 -12v-37v-64h-70v344h36q14 0 24 -10t10 -23v-45z" />
    <glyph glyph-name="m" unicode="m" horiz-adv-x="414" 
d="M232 0h-69v156v14q0 24 -14.5 35t-32.5 11t-32 -11t-14 -35v-170h-70v156q0 68 35.5 91t78.5 25q23 0 45 -5t40 -20q15 13 35.5 18.5t42.5 6.5q44 0 81 -23t37 -93v-156h-35q-15 0 -24.5 9.5t-9.5 24.5v0v136q0 24 -14.5 35t-32.5 11t-32.5 -11t-14.5 -35v-14v-156z" />
    <glyph glyph-name="n" unicode="n" horiz-adv-x="243" 
d="M232 0h-35q-15 0 -24.5 9.5t-9.5 24.5v0v136q0 24 -14.5 35t-32.5 11t-32 -11t-14 -35v-170h-70v156q0 68 35.5 91t78.5 25q44 0 81 -23t37 -93v-156z" />
    <glyph glyph-name="ntilde" unicode="&#xf1;" horiz-adv-x="243" 
d="M54 289v27q0 15 16 23q12 4 27 -1t29.5 -10t28 -6t24.5 12q0 -19 -1.5 -31t-17.5 -15q-14 -3 -29 3t-29 11t-27 4t-21 -17zM232 0h-35q-15 0 -24.5 9.5t-9.5 24.5v0v136q0 24 -14.5 35t-32.5 11t-32 -11t-14 -35v-170h-70v156q0 68 35.5 91t78.5 25q44 0 81 -23t37 -93
v-156z" />
    <glyph glyph-name="o" unicode="o" horiz-adv-x="250" 
d="M33 24q-21 18 -30 48.5t-9 63.5q0 27 7.5 54t23.5 45q26 30 67 35.5t74 -6.5q38 -15 56 -52q17 -33 17 -77q0 -32 -7 -55t-18 -39q-24 -33 -61 -41q-33 -9 -66.5 -1.5t-53.5 25.5zM81 200q-21 -23 -19 -68.5t17 -63.5q6 -8 21 -13.5t30.5 -1t27.5 22.5t13 58
q0 36 -11.5 54t-26.5 23t-30 0.5t-22 -11.5z" />
    <glyph glyph-name="oacute" unicode="&#xf3;" horiz-adv-x="250" 
d="M33 24q-21 18 -30 48.5t-9 63.5q0 27 7.5 54t23.5 45q26 30 67 35.5t74 -6.5q38 -15 56 -52q17 -33 17 -77q0 -32 -7 -55t-18 -40q-25 -33 -61 -40q-33 -9 -66.5 -1.5t-53.5 25.5zM187 353l-61 -63h-33l28 51q2 3 7 7.5t14 4.5h45zM81 200q-21 -23 -19 -68.5t17 -63.5
q6 -8 21 -13.5t30.5 -1t27.5 22.5t13 58q0 36 -11.5 54t-26.5 23t-30 0.5t-22 -11.5z" />
    <glyph glyph-name="ograve" unicode="&#xf2;" horiz-adv-x="250" 
d="M33 24q-21 18 -30 48.5t-9 63.5q0 27 7.5 54t23.5 45q26 30 67 35.5t74 -6.5q38 -15 56 -52q17 -33 17 -77q0 -32 -7 -55t-18 -40q-25 -33 -61 -40q-33 -9 -66.5 -1.5t-53.5 25.5zM51 353h45q8 0 13 -4.5t8 -7.5l27 -51h-32zM81 200q-21 -23 -19 -68.5t17 -63.5
q6 -8 21 -13.5t30.5 -1t27.5 22.5t13 58q0 36 -11.5 54t-26.5 23t-30 0.5t-22 -11.5z" />
    <glyph glyph-name="ocircumflex" unicode="&#xf4;" horiz-adv-x="250" 
d="M33 24q-21 18 -30 48.5t-9 63.5q0 27 7.5 54t23.5 45q26 30 67 35.5t74 -6.5q38 -15 56 -52q17 -33 17 -77q0 -32 -7 -55t-18 -40q-25 -33 -61 -40q-33 -9 -66.5 -1.5t-53.5 25.5zM154 328l32 -38h-40l-31 33l-21 -22q-6 -6 -10.5 -8.5t-13.5 -2.5h-24l32 38q15 20 38 20
q22 0 38 -20zM81 200q-21 -23 -19 -68.5t17 -63.5q6 -8 21 -13.5t30.5 -1t27.5 22.5t13 58q0 36 -11.5 54t-26.5 23t-30 0.5t-22 -11.5z" />
    <glyph glyph-name="otilde" unicode="&#xf5;" horiz-adv-x="250" 
d="M33 24q-21 18 -30 48.5t-9 63.5q0 27 7.5 54t23.5 45q26 30 67 35.5t74 -6.5q38 -15 56 -52q17 -33 17 -77q0 -32 -7 -55t-18 -40q-25 -33 -61 -40q-33 -9 -66.5 -1.5t-53.5 25.5zM53 290v26q0 17 17 23q12 4 27 -1t29.5 -10t28 -6t24.5 12q0 -19 -1.5 -30.5t-17.5 -14.5
q-14 -3 -29 3t-29.5 10.5t-27.5 4t-21 -16.5zM81 200q-21 -23 -19 -68.5t17 -63.5q6 -8 21 -13.5t30.5 -1t27.5 22.5t13 58q0 36 -11.5 54t-26.5 23t-30 0.5t-22 -11.5z" />
    <glyph glyph-name="odieresis" unicode="&#xf6;" horiz-adv-x="250" 
d="M33 24q-21 18 -30 48.5t-9 63.5q0 27 7.5 54t23.5 45q26 30 67 35.5t74 -6.5q38 -15 56 -52q17 -33 17 -77q0 -32 -7 -55t-18 -40q-25 -33 -61 -40q-33 -9 -66.5 -1.5t-53.5 25.5zM184 318v-28h-45v45h28q17 0 17 -17zM93 318v-28h-45v45h28q17 0 17 -17zM81 200
q-21 -23 -19 -68.5t17 -63.5q6 -8 21 -13.5t30.5 -1t27.5 22.5t13 58q0 36 -11.5 54t-26.5 23t-30 0.5t-22 -11.5z" />
    <glyph glyph-name="p" unicode="p" horiz-adv-x="263" 
d="M68 -64q0 -14 -10 -24t-24 -10h-34v249q0 70 41 95.5t89 25.5q25 0 50.5 -9.5t40.5 -27.5q30 -39 30 -100q0 -63 -30 -102q-30 -38 -77 -38q-25 0 -44 9q-20 10 -32 31v-99zM182 132q0 39 -15 60t-43 21q-27 0 -42 -21q-14 -19 -14 -60q0 -38 15 -57q15 -21 43 -21
q26 0 41 21t15 57z" />
    <glyph glyph-name="q" unicode="q" horiz-adv-x="256" 
d="M176 -64v99q-13 -21 -32 -31q-20 -9 -44 -9q-48 0 -77 38q-29 37 -29 102q0 62 29 100q15 18 40 27.5t51 9.5q48 0 89 -25.5t41 -95.5v-249h-34q-14 0 -24 10t-10 24zM62 132q0 -36 15 -57t41 -21q28 0 43 21q15 19 15 57q0 39 -14 60q-15 21 -42 21q-28 0 -43 -21
t-15 -60z" />
    <glyph glyph-name="r" unicode="r" horiz-adv-x="157" 
d="M0 0v129q0 39 11.5 65.5t31.5 42.5q19 15 44.5 22t52.5 7h5h5v-71h-23q-29 0 -43 -14t-14 -44v-137h-70z" />
    <glyph glyph-name="s" unicode="s" horiz-adv-x="241" 
d="M-6 88h68q1 -20 15 -30q15 -10 40 -10q18 0 31 7q12 7 12 19q0 18 -42 27q-18 3 -27 6q-53 13 -71 31q-20 18 -20 48q0 38 29 63q30 23 78 23q52 0 83 -23q29 -25 31 -65h-43q-19 0 -29 17v0l-8 8q-12 9 -33 9q-20 0 -30 -6q-9 -6 -9 -18q0 -16 52 -27q6 -2 10.5 -3
t8.5 -1q51 -13 71 -30q19 -18 19 -48q0 -44 -32 -68q-30 -22 -90 -22q-57 0 -85 23q-29 23 -29 67v3z" />
    <glyph glyph-name="u" unicode="u" horiz-adv-x="243" 
d="M232 266v-156q0 -71 -37 -93t-81 -22q-43 2 -78.5 24t-35.5 91v156h70v-170q0 -24 14 -35t32 -11t32.5 11t14.5 35v136v0q0 14 9.5 24t24.5 10h35z" />
    <glyph glyph-name="uacute" unicode="&#xfa;" horiz-adv-x="243" 
d="M232 266v-156q0 -71 -37 -93t-81 -22q-43 2 -78.5 24t-35.5 91v156h70v-170q0 -24 14 -35t32 -11t32.5 11t14.5 35v136v0q0 14 9.5 24t24.5 10h35zM187 353l-61 -63h-32l28 51q1 3 6.5 7.5t14.5 4.5h44z" />
    <glyph glyph-name="ugrave" unicode="&#xf9;" horiz-adv-x="243" 
d="M232 266v-156q0 -71 -37 -93t-81 -22q-43 2 -78.5 24t-35.5 91v156h70v-170q0 -24 14 -35t32 -11t32.5 11t14.5 35v136v0q0 14 9.5 24t24.5 10h35zM51 353h45q9 0 13.5 -4.5l7.5 -7.5l28 -51h-33z" />
    <glyph glyph-name="ucircumflex" unicode="&#xfb;" horiz-adv-x="243" 
d="M232 266v-156q0 -71 -37 -93t-81 -22q-43 2 -78.5 24t-35.5 91v156h70v-170q0 -24 14 -35t32 -11t32.5 11t14.5 35v136v0q0 14 9.5 24t24.5 10h35zM155 328l31 -38h-40l-30 33l-21 -22q-6 -6 -11 -8.5t-14 -2.5h-24l33 38q14 20 38 20q20 0 38 -20z" />
    <glyph glyph-name="udieresis" unicode="&#xfc;" horiz-adv-x="243" 
d="M232 266v-156q0 -71 -37 -93t-81 -22q-43 2 -78.5 24t-35.5 91v156h70v-170q0 -24 14 -35t32 -11t32.5 11t14.5 35v136v0q0 14 9.5 24t24.5 10h35zM94 318v-28h-46v45h29q17 0 17 -17zM184 318v-28h-45v45h28q17 0 17 -17z" />
    <glyph glyph-name="v" unicode="v" horiz-adv-x="270" 
d="M164 0h-71l-93 266h74l53 -187l47 163q8 24 32 24v0h52z" />
    <glyph glyph-name="x" unicode="x" horiz-adv-x="282" 
d="M257 0h-80l-47 84l-49 -84h-81l87 137l-82 129h77l46 -80l51 86v0q9 18 30 18v0h60l-100 -154z" />
    <glyph glyph-name="w" unicode="w" horiz-adv-x="386" 
d="M295 0h-70l-41 190l-41 -190h-70l-73 266h68l42 -184l38 184h71l36 -184l37 160q6 24 32 24v0h44z" />
    <glyph glyph-name="y" unicode="y" horiz-adv-x="270" 
d="M38 -94v55h19q20 0 31.5 9.5t4.5 30.5l-93 265h77l54 -188l47 164v0q6 24 32 24h48l-102 -303q-12 -33 -30 -47q-18 -12 -59 -12h-7h-7q-3 1 -7.5 1.5t-7.5 0.5z" />
    <glyph glyph-name="z" unicode="z" horiz-adv-x="242" 
d="M0 0v53l143 158h-101q-14 0 -24 9.5t-10 23.5v22h218v-57l-141 -151h146v-58h-231z" />
    <glyph glyph-name="colon" unicode=":" horiz-adv-x="57" 
d="M21 89h34v-55h-55v35q0 20 21 20zM21 232h34v-55h-55v34q0 21 21 21z" />
    <glyph glyph-name="period" unicode="." horiz-adv-x="57" 
d="M21 55h34v-55h-55v34q0 21 21 21z" />
    <glyph glyph-name="semicolon" unicode=";" horiz-adv-x="58" 
d="M22 55h34v-53q0 -25 -14 -44q-16 -16 -42 -21v11q0 8 14 16q5 3 9 8q7 11 7 21q2 7 -9 7v0h-20v34q0 21 21 21zM22 197h34v-55h-55v35q0 20 21 20z" />
    <glyph glyph-name="comma" unicode="," horiz-adv-x="58" 
d="M22 55h34v-53q0 -25 -14 -44q-16 -16 -42 -21v11q0 8 14 16q5 3 9 8q7 11 7 21q2 7 -9 7v0h-20v34q0 21 21 21z" />
    <glyph glyph-name="plus" unicode="+" horiz-adv-x="237" 
d="M0 110v24q0 22 22 22h68v90h24q22 0 22 -22v-68h90v-46h-90v-90h-46v90h-90z" />
    <glyph glyph-name="hyphen" unicode="-" horiz-adv-x="144" 
d="M0 105v29q0 27 27 27h111v-56h-138z" />
    <glyph glyph-name="asciitilde" unicode="~" horiz-adv-x="145" 
d="M0 105v30q0 19 18 25q14 5 30.5 -0.5t33 -11.5t31.5 -7t26 14q0 -21 -1.5 -34.5t-19.5 -16.5q-15 -3 -31.5 3.5t-32.5 12t-30.5 4.5t-23.5 -19z" />
    <glyph glyph-name="plusminus" unicode="&#xb1;" horiz-adv-x="198" 
d="M0 192v17q0 6 5 13t17 7h49v64h24q22 0 22 -22v-42h72v-37h-72v-64h-46v64h-71zM0 55v16q0 22 22 22h167v-38h-189z" />
    <glyph glyph-name="numbersign" unicode="#" horiz-adv-x="399" 
d="M38 197l11 33q4 12 16.5 21.5t25.5 10.5h44l28 82h20q28 0 31.5 -18.5t0.5 -30.5l-12 -33h47l28 82h21q30 0 32 -18.5t-1 -30.5l-11 -33h61l-22 -65h-61l-16 -49h61l-21 -65h-62l-28 -83h-68l27 83h-46l-28 -83h-69l28 83h-75l11 33q4 13 16.5 22.5t25.5 9.5h44l16 49
h-75zM228 197h-46l-17 -49h47z" />
    <glyph glyph-name="dollar" unicode="$" horiz-adv-x="283" 
d="M-6 109h68q4 -30 23 -42q11 -8 28 -11v92h-1l-2 1q-1 0 -3 0.5t-4 0.5q-49 10 -68 24q-17 9 -28 31q-8 17 -8 46q0 51 33 76q27 22 81 26v43h1q15 0 25.5 -10.5t10.5 -25.5v-7q46 -5 73 -27q33 -29 35 -80h-40q-23 0 -32 21v0q-4 8 -14 17q-12 7 -22 10v-85
q18 -6 30.5 -9t20.5 -6q15 -5 28 -12q19 -11 31 -30q10 -19 10 -46q0 -53 -36 -83q-29 -23 -84 -27v-43h-37v43q-51 3 -81 28q-34 29 -38 85zM150 54q21 1 36 11t15 32q0 23 -51 41v-84zM113 296q-21 -2 -32 -10q-15 -11 -15 -31q0 -26 47 -37v78z" />
    <glyph glyph-name="sterling" unicode="&#xa3;" horiz-adv-x="278" 
d="M46 107h-46v44h50q-4 18 -6 25h-44v44h32q-2 9 -3 17.5t-1 17.5q0 44 32 72q33 27 82 27q42 0 73 -23q30 -23 36 -69l-36 -5q-21 -3 -28 6.5t-8 12.5q-13 25 -40 25q-23 0 -33 -14q-12 -14 -12 -31q0 -14 6 -36h48q6 0 20 -2t14 -26v-16h-70q5 -24 5 -25h44q8 0 14 -7.5
t6 -16.5l1 -20h-70q-7 -19 -31 -46q13 6 33 6q13 0 49 -9q20 -4 26 -4q18 0 50 14l26 -57q-29 -14 -67 -15q-23 0 -57 9q-42 10 -55 10q-30 0 -60 -20l-26 57q36 25 46 55z" />
    <glyph glyph-name="cent" unicode="&#xa2;" horiz-adv-x="245" 
d="M50 -56l16 57q-36 16 -55 49q-17 34 -17 83q0 66 32 103t91 37h6h6q3 -1 6.5 -1.5t6.5 -0.5l11 40h26l-13 -46q30 -9 48 -33q15 -24 19 -61h-67q-2 12 -6 21q-5 7 -12 15l-43 -154h0.5h0.5q5 -1 11 -1q22 0 34 12q11 11 16 37h67q-3 -50 -35 -79q-30 -28 -82 -28h-6.5
h-6.5q-4 0 -14 2l-14 -52h-26zM127 215q-3 1 -7 1h-2.5h-1.5q-27 0 -39 -21q-14 -22 -14 -63q0 -23 6 -41q4 -17 16 -28z" />
    <glyph glyph-name="exclam" unicode="!" horiz-adv-x="74" 
d="M12 97l-12 211q0 15 10.5 25.5t25.5 10.5h35l-12 -247h-47zM27 69h43v-69h-69v43q0 26 26 26z" />
    <glyph glyph-name="percent" unicode="%" horiz-adv-x="333" 
d="M31 0l191 330q6 11 14.5 12.5t19.5 1.5h31l-199 -344h-57zM247 155q-30 0 -50 -21t-20 -50q0 -30 20 -50.5t50 -20.5t50.5 20.5t20.5 50.5q0 29 -20.5 50t-50.5 21zM71 331q29 0 50 -20.5t21 -49.5q0 -30 -21 -50.5t-50 -20.5q-30 0 -50.5 20.5t-20.5 50.5
q0 29 20.5 49.5t50.5 20.5zM71 295q-15 0 -25 -10t-10 -24q0 -15 10 -25t25 -10q14 0 24.5 10t10.5 25q0 14 -10.5 24t-24.5 10zM247 119q15 0 25 -10.5t10 -24.5q0 -15 -10 -25t-25 -10t-24.5 10t-9.5 25q0 14 9.5 24.5t24.5 10.5z" />
    <glyph glyph-name="ampersand" unicode="&#x26;" horiz-adv-x="316" 
d="M100 151l-18 -13q-12 -9 -16 -18q-6 -11 -6 -24q0 -19 14 -33t34 -14q14 0 29 6q12 5 25 18zM118 224l9 6q11 8 16 17q6 10 6 22t-8 19q-7 7 -20 7t-20 -7q-8 -8 -8 -19q0 -4 4 -14q1 -5 4 -9l6 -8zM66 193l-14 18q-11 13 -15 26q-5 13 -5 26q0 38 25 59q24 23 65 23
q39 0 62 -21q23 -20 23 -55q0 -27 -13 -47q-15 -21 -43 -38l50 -61q6 11 11 25q3 19 5 32h36q16 0 19 -9t2 -17q-3 -14 -8 -30q-12 -27 -28 -48l63 -76h-80l-23 29q-11 -10 -22 -18t-23 -11q-33 -7 -69 -4t-61 23q-29 27 -29 72q0 33 16 57q17 24 56 45z" />
    <glyph glyph-name="parenleft" unicode="(" horiz-adv-x="130" 
d="M124 389q-33 -55 -47 -106q-16 -54 -16 -114q0 -62 16 -114q14 -52 47 -106h-49q-41 55 -61 111q-20 52 -20 109q0 54 20 109q14 40 40 80q18 28 42.5 29.5t27.5 1.5z" />
    <glyph glyph-name="parenright" unicode=")" horiz-adv-x="138" 
d="M0 -50q32 54 48 105q15 55 15 114q0 60 -15 114q-17 55 -48 107h49q41 -58 62 -112q21 -56 21 -109q0 -52 -21 -109q-14 -38 -41 -79q-18 -28 -42.5 -29.5t-27.5 -1.5z" />
    <glyph glyph-name="braceleft" unicode="{" horiz-adv-x="183" 
d="M175 -36q-1 -9 -8.5 -15t-15.5 -7q-14 0 -21 1l-14 2q-17 3 -27 9q-14 7 -20 22q-5 17 -5 47v61q0 30 -13 47q-13 14 -41 14q-1 0 -2.5 -0.5t-2.5 -0.5h-3.5h-1.5v50h9q29 0 42 14t13 47v60q0 33 5 48q6 15 20 22q10 6 27 9q16 3 40 3h3.5h5.5t5 -0.5t5 -0.5v-50h-3.5
h-2.5q-3 1 -6 1q-25 0 -32 -10q-9 -9 -9 -38v-58q0 -36 -11 -51q-11 -14 -39 -21q28 -6 39 -21q11 -16 11 -51v-58q0 -30 9 -39q8 -8 32 -8h1.5h4.5q1 0 2.5 0.5t3.5 0.5v-29z" />
    <glyph glyph-name="braceright" unicode="}" horiz-adv-x="183" 
d="M0 375q0 9 7.5 15.5t16.5 6.5q12 0 19 -1t16 -2q16 -3 27 -9q14 -8 19 -22q6 -15 6 -48v-61q0 -32 12 -47q13 -13 42 -13h1h4h2.5h2.5v-50h-9q-29 0 -43 -14q-12 -14 -12 -46v-61q0 -33 -6 -47q-5 -13 -19 -22q-12 -6 -27 -9q-17 -3 -41 -3h-4h-5q-4 1 -9 1v50h1.5h4.5h3
h2q25 0 33 8q9 9 9 38v58q0 37 11 51q10 15 39 21q-29 6 -39 21q-11 13 -11 51v58q0 30 -9 39q-8 9 -33 9h-2h-3h-4.5h-1.5v28z" />
    <glyph glyph-name="bar" unicode="|" horiz-adv-x="49" 
d="M47 436v-526h-47v496q0 12 9 21t22 9h16z" />
    <glyph glyph-name="less" unicode="&#x3c;" horiz-adv-x="219" 
d="M209 32l-196 106q-19 11 -19 34q0 24 20 34l195 107v-39q0 -4 -3 -10.5t-9 -9.5l-139 -76q-8 -6 0 -12l151 -81v-53z" />
    <glyph glyph-name="greater" unicode="&#x3e;" horiz-adv-x="226" 
d="M0 313l195 -107q21 -11 21 -34t-21 -33l-195 -107v39q0 3 2.5 10t8.5 10l140 75q8 6 0 12l-151 82v53z" />
    <glyph glyph-name="backslash" unicode="\" horiz-adv-x="147" 
d="M101 0l-101 345h25q14 0 18 -14l97 -331h-39z" />
    <glyph glyph-name="bracketleft" unicode="[" horiz-adv-x="128" 
d="M0 -57v459h122v-51h-57v-356h57v-27q0 -23 -25 -25h-97z" />
    <glyph glyph-name="bracketright" unicode="]" horiz-adv-x="128" 
d="M122 399v-459h-122v51h57v357h-57v26q0 9 6.5 17t18.5 8h97z" />
    <glyph glyph-name="slash" unicode="/" horiz-adv-x="147" 
d="M101 345h39l-97 -332q-4 -13 -18 -13h-25z" />
    <glyph glyph-name="divide" unicode="&#xf7;" horiz-adv-x="237" 
d="M0 148v24q0 22 22 22h204v-46h-226zM113 129q32 0 32 -32q0 -14 -9.5 -23.5t-22.5 -9.5q-14 0 -23.5 9.5t-9.5 23.5q0 13 9.5 22.5t23.5 9.5zM113 278q13 0 22.5 -10t9.5 -23t-9.5 -22.5t-22.5 -9.5q-14 0 -23.5 9.5t-9.5 22.5t9.5 23t23.5 10z" />
    <glyph glyph-name="equal" unicode="=" horiz-adv-x="237" 
d="M0 187v24q0 22 22 22h204v-46h-226zM0 109v24q0 22 22 22h204v-46h-226z" />
    <glyph glyph-name="oslash" unicode="&#xf8;" horiz-adv-x="263" 
d="M36 21l-17 -21h-38l36 43q-13 18 -18.5 42.5t-5.5 50.5q0 27 8 54t23 45q26 30 67 35.5t74 -6.5q14 -5 30 -17l17 19h39l-36 -42q5 -9 7 -12q16 -34 16 -77q0 -32 -7 -55t-18 -39q-24 -33 -61 -41q-31 -9 -63 -2.5t-53 23.5zM152 198q-17 19 -40 15.5t-32 -13.5
q-15 -17 -18 -47.5t3 -54.5zM78 69v0q6 -8 21 -14t30.5 -1.5t27.5 22.5t13 58q0 23 -4 35z" />
    <glyph glyph-name="at" unicode="@" horiz-adv-x="454" 
d="M258 170q-4 19 -14 29t-27 10q-28 0 -47 -29q-20 -30 -20 -70q0 -20 10 -33q9 -11 27 -11q19 0 36 15q15 12 22 38zM246 70q-12 -19 -30 -30q-17 -9 -40 -9q-36 0 -56 20q-20 21 -20 60q0 56 33 94q32 38 81 38q19 0 32 -7q14 -9 23 -23l13 23q32 0 32.5 -16t-0.5 -20
l-25 -105q-1 -2 -1 -5q-1 -2 -1 -4q0 -9 6 -13q5 -4 17 -4q7 0 19 5q12 6 19 13q20 20 30 44q11 26 11 55q0 56 -44 93q-44 36 -112 36q-37 0 -62 -8q-28 -8 -52 -24q-39 -25 -61 -67q-22 -39 -22 -88q0 -72 49 -115q48 -42 130 -42q36 0 74 11q18 6 35 13.5t33 19.5
q4 -7 0.5 -25t-21.5 -27t-36 -15q-38 -14 -84 -14q-44 0 -83 11q-39 12 -68 34q-37 29 -54 65q-17 37 -17 84q0 37 11 75q12 37 37 64q32 41 83 65q51 22 109 22q37 0 75 -11q34 -11 60 -30q31 -25 48 -57q16 -34 16 -71q0 -38 -16 -71q-16 -34 -44 -56q-17 -14 -36 -21
q-23 -7 -41 -7q-24 0 -37 10q-13 11 -13 30z" />
    <glyph glyph-name="copyright" unicode="&#xa9;" horiz-adv-x="120" 
d="M57 346q-9 0 -18 -3q-11 -6 -15 -11q-4 -3 -6.5 -7.5t-4.5 -7.5q-4 -12 -4 -19q0 -6 4 -18q5 -11 11 -15q4 -6 15 -11q9 -3 18 -3q10 0 19 3q3 2 7.5 4.5t7.5 6.5q5 4 11 15q3 9 3 18q0 11 -4 19q-5 10 -10 15q-3 3 -7.5 5.5t-7.5 5.5q-9 3 -19 3zM86 288q0 -12 -9 -18
q-7 -7 -20 -7q-16 0 -23 9q-8 9 -8 26q0 16 8 26q9 9 24 9q13 0 20 -7q8 -7 8 -17h-8q-3 0 -7 4v0q0 -1 -3 5q-6 3 -10 3q-10 0 -14 -6t-4 -17q0 -12 4 -17q4 -6 14 -6q5 0 10 3q4 6 5 10h13zM57 356q10 0 22 -5q7 -2 19 -12q7 -10 12 -19q5 -12 5 -22q0 -11 -5 -22
q-2 -6 -12 -18q-12 -10 -19 -13q-14 -4 -22 -4q-9 0 -21 4q-11 4 -19 13q-9 8 -13 19q-4 9 -4 21t4 22t13 19t18 13q14 4 22 4z" />
    <glyph glyph-name="registered" unicode="&#xae;" horiz-adv-x="120" 
d="M57 356q12 0 22 -5q12 -6 19 -13q9 -8 12 -18q5 -12 5 -22q0 -11 -5 -22t-12 -18q-9 -9 -19 -13q-14 -4 -22 -4q-11 0 -22 5q-10 4 -19 12q-8 9 -12 19q-4 9 -4 21q0 6 2 16q1 3 2.5 6.5t3.5 7.5q7 14 21 20q12 8 28 8zM33 268v57q0 6 7 6h24q11 0 15 -4q5 -4 5 -14
q0 -7 -2 -9q-4 -5 -7 -6q4 -2 6 -4q2 -4 2 -9v-8v-2.5v-2.5t0.5 -2.5t2.5 -1.5h-15l-0.5 1.5t-0.5 2.5v1.5v2.5v7q-2 6 -3 8q-2 2 -7 2h-14v-25h-13zM46 304h16q5 0 7 2q2 1 2 6t-2 6q-3 3 -7 3h-16v-17zM57 346q-9 0 -18 -3q-4 -3 -8 -5t-7 -5q-6 -6 -11 -16q-4 -12 -4 -19
q0 -6 4 -18q2 -5 10 -15q6 -6 16 -11q9 -3 18 -3t18 3q10 5 16 11q7 7 10 15q4 8 4 18t-3 18q-5 10 -11 16q-5 5 -15 11q-9 3 -19 3z" />
    <glyph glyph-name="asterisk" unicode="*" horiz-adv-x="120" 
d="M58 353h12v-38l25 7q12 4 16 -10l4 -12l-36 -10l14 -20q7 -12 -4 -19l-11 -7l-21 30l-14 -19q-9 -11 -19 -2l-10 7l21 30l-35 10l4 12q3 13 16 10l24 -7v25q0 13 14 13z" />
    <glyph glyph-name="grave" unicode="`" horiz-adv-x="98" 
d="M0 354h45q9 0 14 -4.5t7 -7.5l28 -51h-33z" />
    <glyph glyph-name="quotesingle" unicode="'" horiz-adv-x="98" 
d="M94 354l-61 -63h-33l28 51q2 3 7 7.5t14 4.5h45z" />
    <glyph glyph-name="acute" unicode="&#xb4;" horiz-adv-x="98" 
d="M94 354l-61 -63h-33l28 51q2 3 7 7.5t14 4.5h45z" />
    <glyph glyph-name="quotedbl" unicode="&#x22;" horiz-adv-x="172" 
d="M40 226h-40v56q0 30 16 48t48 24v-12q0 -6 -3 -9t-12 -9q-5 -2 -11 -8q-8 -9 -9 -22q0 -3 1 -6t10 -3v0h23v-37q0 -22 -23 -22zM139 226h-39v56q0 30 16 48t48 24v-12q0 -9 -16 -18q-6 -3 -11 -8q-7 -8 -8 -22q-3 -9 10 -9h1h23v-37q0 -22 -24 -22z" />
    <glyph glyph-name="dieresis" unicode="&#xa8;" horiz-adv-x="172" 
d="M124 354h40v-57q0 -29 -16 -48q-18 -19 -48 -23v12q0 8 15 17q7 4 11 9q7 9 9 22q0 3 -1.5 6t-9.5 3v0h-23v37q0 22 23 22zM25 354h39v-57q0 -31 -16 -48q-18 -19 -48 -23v12q0 8 16 17q3 2 5.5 4t5.5 5q6 10 8 22q2 9 -11 9v0h-23v37q0 22 24 22z" />
    <glyph glyph-name="underscore" unicode="_" horiz-adv-x="273" 
d="M0 -62v14q0 12 8 20.5t20 8.5h232v-43h-260z" />
    <glyph glyph-name="ordfeminine" unicode="&#xaa;" horiz-adv-x="109" 
d="M72 286q-5 -2 -9.5 -4t-9.5 -2l-12 -3q-8 -2 -12 -6q-4 -6 -4 -11q0 -7 5 -12q6 -4 12 -4q14 0 22 8t8 22v12zM104 273q0 -40 -24.5 -47.5t-41.5 -7.5q-19 0 -31.5 9.5t-12.5 31.5q0 21 12 29.5t30 11.5q6 2 14 2q21 3 21 13q0 7 -7.5 9.5t-13.5 2.5q-17 0 -20 -10h-32
q2 15 12 25q13 12 38 12q28 0 41 -10q15 -9 15 -27v-44z" />
    <glyph glyph-name="ordmasculine" unicode="&#xba;" horiz-adv-x="118" 
d="M12 232q-18 19 -18 55q0 31 15 48q12 15 32 17.5t37 -2.5q19 -8 27 -26q8 -15 8 -38q0 -30 -12 -46t-30 -20q-16 -5 -32.5 -1t-26.5 13zM36 318q-11 -12 -10 -34t9 -30q6 -8 25.5 -7.5t19.5 39.5q0 36 -19 37.5t-25 -5.5z" />
    <glyph glyph-name="uni00B2" unicode="&#xb2;" horiz-adv-x="86" 
d="M0 240q0 15 8 28q5 9 20 20q1 0 3 1.5t5 3.5q22 14 22 25q0 8 -4 12t-13 4q-10 0 -13 -5q-5 -7 -5 -15v-1h-12q-10 0 -8 12q3 11 10 18q11 11 30 11q16 0 28 -10q11 -10 11 -26q0 -11 -6 -20q-5 -8 -21 -19q-6 -4 -14.5 -9t-8.5 -10h49v-20h-81z" />
    <glyph glyph-name="uni00B3" unicode="&#xb3;" horiz-adv-x="87" 
d="M1 276h22q0 -10 4 -15q5 -4 14 -4t13 4q5 3 5 13q0 8 -5 13q-8 4 -17 4h-0.5h-0.5h-1.5h-0.5v15h2q11 0 15 4q5 5 5 12q0 6 -4 10t-11 4t-12 -5q-4 -3 -4 -12v-1h-12v0q-10 0 -8 12q1 8 8 15q10 9 29 9q16 0 27 -9q10 -8 10 -22q0 -7 -3 -13q-8 -8 -11 -9q8 -3 14 -10
q4 -7 4 -16q0 -18 -11 -27q-14 -10 -31 -10q-20 0 -30 10q-10 8 -10 27v1z" />
    <glyph glyph-name="onequarter" unicode="&#xbc;" horiz-adv-x="208" 
d="M33 132v90h-25v19q9 0 18 6t13 19h7v0q14 0 14 -14v-120h-27zM156 0v30h-58v24l50 80h21q14 0 14 -14v-8v0v-60h16v-22h-16v-30h-27zM0 0l148 255q4 8 10.5 9.5t14.5 1.5h9l-154 -266h-28zM156 51v59l-37 -59h37z" />
    <glyph glyph-name="onehalf" unicode="&#xbd;" horiz-adv-x="206" 
d="M99 0q0 18 10 33q6 11 24 24q3 3 9 6q27 17 27 30q0 9 -6 14q-5 6 -14 6q-11 0 -16 -7q-6 -6 -6 -18v-2h-14q-13 0 -10 15q2 12 11 22q14 13 36 13t34 -12q13 -12 13 -31q0 -15 -7 -23q-6 -11 -25 -23q-7 -6 -17 -11.5t-11 -11.5h59v-24h-97zM0 0l148 255q4 8 10.5 9.5
t14.5 1.5h9l-154 -266h-28zM33 132v90h-25v19q9 0 18 6t13 19h7v0q14 0 14 -14v-120h-27z" />
    <glyph glyph-name="threequarters" unicode="&#xbe;" horiz-adv-x="238" 
d="M29 0l147 255q5 8 11.5 9.5t14.5 1.5h8l-154 -266h-27zM185 0v30h-58v24l50 80h20q14 0 14 -14v-8v0v-60h16v-22h-16v-30h-26zM185 51v59l-37 -59h37zM0 172h26q0 -11 6 -17q6 -5 16 -5q11 0 16 5q6 6 6 15q0 10 -7 15q-6 6 -19 6q-1 0 -1.5 -0.5l-0.5 -0.5h-1.5h-0.5v19
h3q11 0 17 4q6 6 6 14t-5 13q-4 4 -13 4q-11 0 -14 -5q-5 -5 -5 -15v-1h-14v0q-14 0 -10 14q3 11 10 18q12 11 34 11q19 0 33 -10q12 -11 12 -27q0 -10 -4 -15q-4 -7 -13 -11q12 -6 16 -13q6 -8 6 -19q0 -20 -14 -32q-15 -11 -37 -11t-36 11q-12 12 -12 33v0z" />
    <glyph glyph-name="section" unicode="&#xa7;" horiz-adv-x="184" 
d="M161 291l-24 -3q-30 -6 -33.5 10t-20.5 16q-12 0 -18 -6q-6 -5 -6 -12q0 -9 8 -17q5 -5 38 -27t41 -30q14 -12 23 -27q7 -16 7 -29q0 -18 -9 -33q-8 -15 -24 -26q11 -12 16 -23q6 -11 6 -25q0 -28 -21 -46q-18 -18 -57 -18t-58 18q-22 16 -26 49l15 2q20 2 25.5 -2.5
t21.5 -18.5q9 -9 23 -9q12 0 19 7q7 5 7 15t-6 16q-7 7 -49 34q-38 25 -54 45q-11 18 -11 41q0 14 7 34q7 14 25 26q-8 7 -13 20q-5 8 -5 22q0 25 19 42q19 18 54 18t56 -18q19 -17 24 -45zM115 130q9 8 12 14q4 5 4 13q0 7 -4 13q-7 8 -23 20l-49 37q-5 -2 -11 -10
q-5 -7 -5 -15q0 -20 24 -36z" />
    <glyph glyph-name="zero" unicode="0" horiz-adv-x="261" 
d="M121 350q56 0 90 -37q38 -43 38 -141q0 -100 -39 -142q-31 -35 -89 -35t-93 38q-34 38 -34 139q0 99 38 142q31 36 89 36zM121 294q-15 0 -25 -8q-15 -12 -23 -44.5t-8 -69.5q0 -38 7.5 -71t24.5 -44q11 -8 24 -8q12 0 25 8q15 11 23 44t8 70t-8.5 70t-23.5 45
q-10 8 -24 8z" />
    <glyph glyph-name="one" unicode="1" horiz-adv-x="140" 
d="M65 0v232h-65v50q22 0 45.5 14.5t32.5 47.5h20v0q15 0 25.5 -10t10.5 -25v-309h-69z" />
    <glyph glyph-name="two" unicode="2" horiz-adv-x="256" 
d="M-6 0q0 48 23 85q21 34 63 63q3 2 9 5.5t14 8.5q33 21 51 39t18 38q0 24 -14 37q-14 14 -38 14q-27 0 -42 -17q-14 -18 -14 -47v-3h-36q-21 0 -24.5 11.5t-1.5 25.5q7 33 29 57q33 32 93 32q56 0 88 -29q32 -31 32 -80q0 -37 -17 -61q-18 -27 -66 -59q-17 -12 -42.5 -28
t-28.5 -31h151v-61h-247z" />
    <glyph glyph-name="three" unicode="3" horiz-adv-x="259" 
d="M-6 109h67q0 -29 14 -43q15 -15 42 -15q28 0 41 14q15 13 15 39q0 25 -17 39q-16 13 -51 13h-2.5h-2.5q-2 0 -3.5 -0.5l-1.5 -0.5v48h7q31 0 46 12t15 36q0 19 -13 32q-11 11 -34 11q-25 0 -36 -13q-13 -13 -13 -39v-2h-36v0q-21 0 -25 11.5t-1 24.5q7 27 27 45
q32 29 87 29q53 0 84 -26q32 -26 32 -68q0 -23 -11 -40q-12 -18 -32 -28q27 -13 41 -32q14 -20 14 -49q0 -53 -35 -83q-34 -29 -95 -29t-92 29q-31 28 -31 84v1z" />
    <glyph glyph-name="four" unicode="4" horiz-adv-x="273" 
d="M150 0v77h-150v62l131 205h52q15 0 25 -10.5t11 -24.5v-21v0v-155h41v-56h-41v-77h-69zM151 131v152l-96 -152h96z" />
    <glyph glyph-name="five" unicode="5" horiz-adv-x="259" 
d="M-6 100h68q1 -24 16 -37q13 -12 37 -12q29 0 44 16q15 18 15 49q0 30 -16 46q-15 17 -43 17q-15 0 -27 -6q-13 -7 -19 -18l-64 3l23 187h168q14 -1 24.5 -11t10.5 -25v-21v-3h-153l-9 -67q9 8 26 13q16 5 34 5q53 0 85 -32q33 -33 33 -85q0 -57 -36 -91q-35 -33 -96 -33
q-57 0 -88 27q-31 28 -33 78z" />
    <glyph glyph-name="six" unicode="6" horiz-adv-x="261" 
d="M68 114q0 -29 15 -47q14 -17 41 -17q26 0 39 17q14 17 14 47q0 28 -15 43q-14 15 -40 15q-25 0 -40 -15q-14 -16 -14 -43zM67 204q11 11 29 18q21 7 38 7q51 0 84 -31q31 -33 31 -82q0 -54 -34 -89q-34 -32 -91 -32q-65 0 -98 42q-32 42 -32 127q0 91 35 138
q36 48 103 48q47 0 76 -24q28 -25 32 -65h-52q-10 0 -15.5 6t-11.5 13q-6 5 -14 10t-23 5q-26 0 -41 -23q-15 -22 -16 -68z" />
    <glyph glyph-name="seven" unicode="7" horiz-adv-x="276" 
d="M125 0h-74q2 70 35 144q29 69 88 140h-174v60h228q27 0 31 -19.5t-8 -33.5q-29 -33 -51.5 -66.5t-37.5 -69.5q-33 -75 -37 -155z" />
    <glyph glyph-name="eight" unicode="8" horiz-adv-x="260" 
d="M122 -5h-1h-1h-1q-60 0 -93 27q-32 27 -32 80q0 28 10 47q11 20 38 35l3 1q-1 0 -2.5 0.5t-1.5 1.5q-17 9 -28 26q-11 18 -11 44t15 48q4 9 11 14q1 1 2.5 2t2.5 2q14 11 34.5 18.5t48.5 7.5l4 1v0v0h1v0l3 -1q28 0 48.5 -7.5t34.5 -18.5q4 -2 5 -4q5 -4 12 -14
q15 -22 14.5 -48t-11.5 -44q-10 -17 -28 -26q-1 -1 -2 -1.5l-1 -0.5l3 -1q26 -15 38 -35q11 -21 11 -47q0 -52 -34 -80q-33 -27 -92 -27zM129 52h1v0v0h1q16 1 30 13q15 15 15 39q0 16 -8 28q-15 25 -47 25h-1v0v0q-34 0 -48 -25q-7 -10 -7 -28q0 -24 15 -39q11 -12 30 -13
v0h1v0h1q2 -1 7 -1v0h1h1h1q5 0 7 1zM120 294q-24 0 -37 -12.5t-13 -29.5q0 -18 11.5 -29.5t38.5 -11.5q26 0 38 11.5t12 29.5q0 17 -13 29.5t-37 12.5z" />
    <glyph glyph-name="nine" unicode="9" horiz-adv-x="261" 
d="M216 306q33 -44 33 -127q0 -89 -36 -137q-36 -47 -104 -47q-48 0 -75 23q-9 7 -18 18t-9 26q0 20 24 20h43q2 -17 13 -25q12 -8 31 -8q25 0 41 23q14 24 16 68q-11 -11 -29 -19q-14 -5 -38 -5q-53 0 -84 30q-30 30 -30 82q0 83 69 111q25 11 54 11q65 0 99 -44zM79 187
q14 -16 41 -16q25 0 39 16q9 9 12.5 27t-0.5 35.5t-17 31t-37 13.5q-15 0 -24.5 -5.5t-13.5 -11.5q-15 -18 -15 -46t15 -44z" />
    <glyph glyph-name="question" unicode="?" horiz-adv-x="234" 
d="M75 100q0 33 5.5 51.5t35.5 42.5q15 12 25.5 24t10.5 30q0 40 -33.5 45t-48.5 -13q-13 -14 -14 -42q-27 0 -44.5 1t-17.5 28q0 15 7.5 30.5t19.5 26.5q21 19 55 26t67 -1t56.5 -32t23.5 -66q0 -33 -13.5 -51t-29.5 -30.5t-29.5 -25t-12.5 -35.5v-5v-4h-63zM98 69h44v-69
h-69v43q0 26 25 26z" />
    <glyph glyph-name="questiondown" unicode="&#xbf;" horiz-adv-x="234" 
d="M75 254h63v-5v-4q-1 -24 12.5 -36.5t29.5 -25.5t29.5 -30.5t13.5 -50.5q0 -42 -23.5 -66t-56.5 -32q-33 -6 -67 -0.5t-55 26.5q-12 10 -19.5 25.5t-7.5 31.5q0 26 17.5 27.5t44.5 1.5q1 -29 14 -42q15 -19 48.5 -14t33.5 46q0 18 -10.5 30t-25.5 24q-30 23 -35.5 42
t-5.5 52zM98 285q-25 0 -25 25v44h69v-69h-44z" />
    <glyph glyph-name="AE" unicode="&#xc6;" horiz-adv-x="536" 
d="M253 0v71h-133l-46 -71h-74l219 320q6 10 18 16.5t23 6.5h56v0h186v-60h-179v-73h134v-22q-1 -15 -11.5 -25.5t-25.5 -10.5h-97v-89h188v-63h-201h-57v0zM253 169v105l-95 -146h95v41z" />
    <glyph glyph-name="Eth" unicode="&#xd0;" horiz-adv-x="379" 
d="M70 0v149h-70v45h70v113q0 14 10.5 25t25.5 11h98q79 0 118 -43q39 -42 39 -129q0 -47 -15 -83q-14 -36 -41 -57q-21 -17 -47 -24q-24 -7 -73 -7h-115zM139 194v0h39q30 0 30 -30v-15h-69v0v-87h56q49 0 72 26q22 26 22 83q0 58 -21 85t-64 27h-65v-89z" />
    <glyph glyph-name="Thorn" unicode="&#xde;" horiz-adv-x="195" 
d="M50 25q0 -21 -18.5 -23t-31.5 -2v343q13 0 31.5 -2t18.5 -23v-52q14 6 28 7t29 1q39 0 59 -32.5t20 -70.5t-20 -70t-59 -32q-15 0 -29 1t-28 7v-52zM93 228q-19 0 -32 -16.5t-13 -39.5q0 -24 13 -40t32 -16q18 0 31.5 16t13.5 40q0 23 -13.5 39.5t-31.5 16.5z" />
    <glyph glyph-name="germandbls" unicode="&#xdf;" horiz-adv-x="295" 
d="M0 -43v282q1 48 35.5 81.5t82.5 33.5h44q52 0 80 -23q28 -22 28 -64q0 -26 -11 -44q-11 -17 -30 -27q25 -11 39 -31q13 -19 13 -50q0 -51 -32 -77q-33 -27 -93 -27h-55v62h50q30 0 43 10q14 10 14 34q0 23 -13 35q-13 10 -44 10h-50v59h47q26 0 38 9q13 9 13 28t-12 28
q-13 8 -39 8h-21q-31 0 -45 -19t-14 -39v-279h-68z" />
    <glyph glyph-name="ae" unicode="&#xe6;" horiz-adv-x="412" 
d="M154 131q-17 -9 -39 -13q-12 -3 -17.5 -4l-5.5 -1q-18 -5 -26 -13q-7 -7 -7 -22t9 -22q9 -9 25 -9q29 0 44 16q17 17 17 43v25zM322 80h68q-11 -41 -42 -63q-30 -22 -75 -22q-52 0 -83 31q-26 -21 -61 -26t-58 -5q-39 0 -58 21q-19 20 -19 61t24.5 58.5t61.5 23.5
q6 0 12.5 1t15.5 3q45 4 45 25q0 8 -3.5 10.5t-8.5 5.5q-9 7 -33 7q-20 0 -32 -8q-5 -5 -8 -11h-67q4 32 27 50q29 23 78 23q55 0 83 -19q7 -5 8 -6q29 25 75 25q58 0 90 -35q31 -36 31 -101v-6.5v-4.5v-3.5v-2.5h-169q0 -30 14 -45q14 -16 38 -16q15 0 29 7q11 8 17 22z
M224 156h99q0 24 -13 39q-13 13 -37 13q-22 0 -35 -13q-13 -15 -14 -39z" />
    <glyph glyph-name="uni00B5" unicode="&#xb5;" horiz-adv-x="229" 
d="M219 248v-145q0 -67 -35 -87.5t-76 -20.5q-12 1 -22.5 2t-20.5 3v-63v0q0 -13 -9.5 -22.5t-21.5 -9.5h-34v249v0v94h65v-158q0 -23 14 -33.5t31 -10.5q16 0 29.5 10.5t13.5 33.5v127v0q0 12 9.5 21.5t22.5 9.5h34z" />
    <glyph glyph-name="asciicircum" unicode="^" horiz-adv-x="147" 
d="M108 333l32 -38h-41l-30 34l-21 -23q-6 -6 -10.5 -8.5t-13.5 -2.5h-24l32 38q16 21 38 21q21 0 38 -21z" />
    <glyph glyph-name="l" unicode="l" horiz-adv-x="85" 
d="M3 344h36q14 0 24 -9.5t10 -23.5v-311h-70v344z" />
    <glyph glyph-name="t" unicode="t" horiz-adv-x="124" 
d="M118 0q-33 -2 -71.5 1t-38.5 49v294h36q13 0 23 -10t10 -24v-45h41v-14q0 -15 -10 -24.5t-24 -9.5h-7v-148q0 -17 20 -17h21v-52z" />
    <glyph glyph-name="i" unicode="i" horiz-adv-x="79" 
d="M6 266h36q14 0 24 -10t10 -24v-232h-70v266zM6 344h36q14 0 24 -10t10 -24v-21h-70v55z" />
    <glyph glyph-name="iacute" unicode="&#xed;" horiz-adv-x="91" 
d="M6 266h36q14 0 24 -10t10 -24v-232h-70v266zM112 352l-61 -62h-32l27 51q2 3 7 7t14 4h45z" />
    <glyph glyph-name="igrave" unicode="&#xec;" horiz-adv-x="91" 
d="M6 266h36q14 0 24 -10t10 -24v-232h-70v266zM-39 352h43q9 0 14 -4t7 -7l28 -51h-33z" />
    <glyph glyph-name="icircumflex" unicode="&#xee;" horiz-adv-x="91" 
d="M6 266h36q14 0 24 -10t10 -24v-232h-70v266zM80 327l31 -37h-40l-31 33l-20 -23q-10 -10 -24 -10h-24l32 37q15 21 38 21q20 0 38 -21z" />
    <glyph glyph-name="idieresis" unicode="&#xef;" horiz-adv-x="91" 
d="M7 266h35q14 0 24 -10t10 -24v-232h-69v266zM19 318v-28h-45v45h28q17 0 17 -17zM109 318v-28h-45v45h29q16 0 16 -17z" />
    <glyph glyph-name="j" unicode="j" horiz-adv-x="91" 
d="M-23 -111v58h13q9 0 12 5q4 3 4 13v35v0v201v65h36q14 0 24 -10t10 -24v-232v0v-46q0 -34 -20 -50q-20 -15 -66 -15h-13zM6 344h36q14 0 24 -10t10 -24v-21h-70v55z" />
    <glyph glyph-name="aring" unicode="&#xe5;" horiz-adv-x="130" 
d="M89 74q-9 -4 -22 -7l-9 -1.5l-3 -0.5q-18 -7 -18 -20q0 -10 5 -13q5 -5 13 -5q16 0 25 9t9 25v13zM84 175q0 -4 -2 -8q-2 -5 -4 -7q-2 -1 -3.5 -2.5t-3.5 -1.5q-2 -1 -8 -1q-4 0 -6 1q-5 1 -6 3q-5 3 -6 7q-2 6 -2 9t2 7q1 4 4 7q2 2 7 4q4 2 7 2q4 0 8 -2t7 -4
q2 -3 4 -7t2 -7zM63 163q5 0 8 4q3 3 3 8q0 3 -3 8q-3 3 -8 3q-4 0 -7 -3q-3 -5 -3 -8q0 -5 3 -8q2 -4 7 -4zM98 6q-15 -6 -37.5 -7.5t-37.5 4.5q-23 11 -23 41q0 23 13.5 33t34.5 13q8 2 16 2q24 4 24 15q0 8 -8.5 10.5t-15.5 2.5q-19 0 -23 -11h-36q1 17 15 28
q14 13 43 13q30 0 45 -10q16 -11 16 -31v-50q0 -22 -8 -34.5t-18 -18.5z" />
    <glyph glyph-name="Aring" unicode="&#xc5;" horiz-adv-x="190" 
d="M81 189h31l69 -189h-41l-13 39h-73l-13 -39h-41l63 177q5 12 18 12zM90 204q5 0 8 3t3 8t-3 8t-8 3q-4 0 -7 -3t-3 -8t3 -8t7 -3zM111 215q0 -2 -2 -8q-2 -4 -4 -6q-3 -3 -7 -4q-4 -2 -8 -2q-2 0 -3.5 0.5t-2.5 0.5q-5 1 -7 4q-4 4 -5 7q-2 4 -2 8q0 2 2 8q2 4 4 6
q1 1 7 5q2 1 7 1q6 0 8 -1q6 -4 7 -5q2 -2 4 -6q2 -6 2 -8zM90 152l-26 -81h52z" />
  </font>
</defs></svg>
